simulation/qsim/alu.msim.vcd
$comment
	File created using the following command:
		vcd file alu.msim.vcd -direction
$end
$date
	Sat Sep 17 12:20:48 2022
$end
$version
	ModelSim Version 10.5b
$end
$timescale
	1ps
$end

$scope module subtractor_vlg_vec_tst $end
$var reg 32 ! in1 [31:0] $end
$var reg 32 " in2 [31:0] $end
$var wire 1 # cout $end
$var wire 1 $ out [31] $end
$var wire 1 % out [30] $end
$var wire 1 & out [29] $end
$var wire 1 ' out [28] $end
$var wire 1 ( out [27] $end
$var wire 1 ) out [26] $end
$var wire 1 * out [25] $end
$var wire 1 + out [24] $end
$var wire 1 , out [23] $end
$var wire 1 - out [22] $end
$var wire 1 . out [21] $end
$var wire 1 / out [20] $end
$var wire 1 0 out [19] $end
$var wire 1 1 out [18] $end
$var wire 1 2 out [17] $end
$var wire 1 3 out [16] $end
$var wire 1 4 out [15] $end
$var wire 1 5 out [14] $end
$var wire 1 6 out [13] $end
$var wire 1 7 out [12] $end
$var wire 1 8 out [11] $end
$var wire 1 9 out [10] $end
$var wire 1 : out [9] $end
$var wire 1 ; out [8] $end
$var wire 1 < out [7] $end
$var wire 1 = out [6] $end
$var wire 1 > out [5] $end
$var wire 1 ? out [4] $end
$var wire 1 @ out [3] $end
$var wire 1 A out [2] $end
$var wire 1 B out [1] $end
$var wire 1 C out [0] $end
$var wire 1 D overflow $end

$scope module i1 $end
$var wire 1 E gnd $end
$var wire 1 F vcc $end
$var wire 1 G unknown $end
$var tri1 1 H devclrn $end
$var tri1 1 I devpor $end
$var tri1 1 J devoe $end
$var wire 1 K overflow~output_o $end
$var wire 1 L cout~output_o $end
$var wire 1 M out[0]~output_o $end
$var wire 1 N out[1]~output_o $end
$var wire 1 O out[2]~output_o $end
$var wire 1 P out[3]~output_o $end
$var wire 1 Q out[4]~output_o $end
$var wire 1 R out[5]~output_o $end
$var wire 1 S out[6]~output_o $end
$var wire 1 T out[7]~output_o $end
$var wire 1 U out[8]~output_o $end
$var wire 1 V out[9]~output_o $end
$var wire 1 W out[10]~output_o $end
$var wire 1 X out[11]~output_o $end
$var wire 1 Y out[12]~output_o $end
$var wire 1 Z out[13]~output_o $end
$var wire 1 [ out[14]~output_o $end
$var wire 1 \ out[15]~output_o $end
$var wire 1 ] out[16]~output_o $end
$var wire 1 ^ out[17]~output_o $end
$var wire 1 _ out[18]~output_o $end
$var wire 1 ` out[19]~output_o $end
$var wire 1 a out[20]~output_o $end
$var wire 1 b out[21]~output_o $end
$var wire 1 c out[22]~output_o $end
$var wire 1 d out[23]~output_o $end
$var wire 1 e out[24]~output_o $end
$var wire 1 f out[25]~output_o $end
$var wire 1 g out[26]~output_o $end
$var wire 1 h out[27]~output_o $end
$var wire 1 i out[28]~output_o $end
$var wire 1 j out[29]~output_o $end
$var wire 1 k out[30]~output_o $end
$var wire 1 l out[31]~output_o $end
$var wire 1 m in2[27]~input_o $end
$var wire 1 n in1[27]~input_o $end
$var wire 1 o in1[26]~input_o $end
$var wire 1 p in1[25]~input_o $end
$var wire 1 q in2[25]~input_o $end
$var wire 1 r comb_35|comb_4|comb_12|w3~0_combout $end
$var wire 1 s in2[20]~input_o $end
$var wire 1 t in2[18]~input_o $end
$var wire 1 u in1[18]~input_o $end
$var wire 1 v in1[19]~input_o $end
$var wire 1 w in2[19]~input_o $end
$var wire 1 x comb_35|comb_4|comb_6|w1~combout $end
$var wire 1 y in2[16]~input_o $end
$var wire 1 z in2[17]~input_o $end
$var wire 1 { in1[17]~input_o $end
$var wire 1 | in1[16]~input_o $end
$var wire 1 } comb_35|comb_5|comb_9|cout~0_combout $end
$var wire 1 ~ comb_35|comb_5|comb_9|cout~1_combout $end
$var wire 1 !! comb_35|comb_4|comb_6|w3~0_combout $end
$var wire 1 "! in1[20]~input_o $end
$var wire 1 #! comb_35|comb_5|comb_9|cout~2_combout $end
$var wire 1 $! in2[22]~input_o $end
$var wire 1 %! in1[22]~input_o $end
$var wire 1 &! comb_35|comb_4|comb_9|w1~combout $end
$var wire 1 '! in1[21]~input_o $end
$var wire 1 (! in2[21]~input_o $end
$var wire 1 )! comb_35|comb_5|comb_9|cout~3_combout $end
$var wire 1 *! comb_35|comb_4|comb_9|w3~0_combout $end
$var wire 1 +! in2[23]~input_o $end
$var wire 1 ,! in1[23]~input_o $end
$var wire 1 -! comb_35|comb_5|comb_16|cout~0_combout $end
$var wire 1 .! in2[24]~input_o $end
$var wire 1 /! in1[24]~input_o $end
$var wire 1 0! comb_35|comb_4|comb_12|w1~combout $end
$var wire 1 1! comb_35|comb_5|comb_16|cout~1_combout $end
$var wire 1 2! in2[26]~input_o $end
$var wire 1 3! comb_35|comb_5|comb_16|cout~2_combout $end
$var wire 1 4! comb_35|comb_5|comb_16|cout~3_combout $end
$var wire 1 5! in2[29]~input_o $end
$var wire 1 6! in1[29]~input_o $end
$var wire 1 7! comb_35|comb_4|comb_16|w1~combout $end
$var wire 1 8! comb_35|comb_4|comb_10|cout~0_combout $end
$var wire 1 9! comb_35|comb_4|comb_10|cout~1_combout $end
$var wire 1 :! comb_35|comb_4|comb_10|cout~2_combout $end
$var wire 1 ;! comb_35|comb_4|comb_10|cout~3_combout $end
$var wire 1 <! comb_35|comb_4|comb_10|cout~4_combout $end
$var wire 1 =! comb_35|comb_4|comb_17|cout~0_combout $end
$var wire 1 >! comb_35|comb_4|comb_17|cout~1_combout $end
$var wire 1 ?! comb_35|comb_4|comb_17|cout~2_combout $end
$var wire 1 @! in1[15]~input_o $end
$var wire 1 A! in2[14]~input_o $end
$var wire 1 B! in1[13]~input_o $end
$var wire 1 C! in2[13]~input_o $end
$var wire 1 D! in2[10]~input_o $end
$var wire 1 E! in1[10]~input_o $end
$var wire 1 F! in1[9]~input_o $end
$var wire 1 G! in2[9]~input_o $end
$var wire 1 H! in2[8]~input_o $end
$var wire 1 I! in1[7]~input_o $end
$var wire 1 J! in2[6]~input_o $end
$var wire 1 K! in2[5]~input_o $end
$var wire 1 L! in1[5]~input_o $end
$var wire 1 M! in1[3]~input_o $end
$var wire 1 N! in2[3]~input_o $end
$var wire 1 O! comb_35|comb_3|comb_6|w3~combout $end
$var wire 1 P! comb_35|comb_3|comb_6|w1~combout $end
$var wire 1 Q! in2[2]~input_o $end
$var wire 1 R! in2[1]~input_o $end
$var wire 1 S! in1[0]~input_o $end
$var wire 1 T! in1[1]~input_o $end
$var wire 1 U! in2[0]~input_o $end
$var wire 1 V! comb_35|comb_3|comb_4|cout~combout $end
$var wire 1 W! in1[2]~input_o $end
$var wire 1 X! comb_35|comb_3|comb_6|w2~combout $end
$var wire 1 Y! in1[4]~input_o $end
$var wire 1 Z! in2[4]~input_o $end
$var wire 1 [! comb_35|comb_3|comb_7|cout~combout $end
$var wire 1 \! comb_35|comb_3|comb_8|cout~combout $end
$var wire 1 ]! in1[6]~input_o $end
$var wire 1 ^! comb_35|comb_3|comb_9|cout~combout $end
$var wire 1 _! in2[7]~input_o $end
$var wire 1 `! comb_35|comb_3|comb_10|cout~combout $end
$var wire 1 a! in1[8]~input_o $end
$var wire 1 b! comb_35|comb_3|comb_11|cout~combout $end
$var wire 1 c! comb_35|comb_3|comb_12|cout~combout $end
$var wire 1 d! comb_35|comb_3|comb_13|cout~combout $end
$var wire 1 e! in1[11]~input_o $end
$var wire 1 f! in2[11]~input_o $end
$var wire 1 g! comb_35|comb_3|comb_14|cout~combout $end
$var wire 1 h! in2[12]~input_o $end
$var wire 1 i! in1[12]~input_o $end
$var wire 1 j! comb_35|comb_3|comb_15|cout~combout $end
$var wire 1 k! comb_35|comb_3|comb_16|cout~combout $end
$var wire 1 l! in1[14]~input_o $end
$var wire 1 m! comb_35|comb_3|comb_17|cout~combout $end
$var wire 1 n! in2[15]~input_o $end
$var wire 1 o! comb_35|comb_3|comb_18|cout~combout $end
$var wire 1 p! comb_35|comb_7|out~2_combout $end
$var wire 1 q! in1[28]~input_o $end
$var wire 1 r! in2[28]~input_o $end
$var wire 1 s! comb_35|comb_7|out~3_combout $end
$var wire 1 t! in2[30]~input_o $end
$var wire 1 u! in1[30]~input_o $end
$var wire 1 v! comb_35|comb_4|comb_16|w3~0_combout $end
$var wire 1 w! comb_35|comb_7|out~0_combout $end
$var wire 1 x! in1[31]~input_o $end
$var wire 1 y! in2[31]~input_o $end
$var wire 1 z! comb_35|comb_7|out~1_combout $end
$var wire 1 {! comb_35|comb_4|comb_8|w3~0_combout $end
$var wire 1 |! comb_35|comb_4|comb_8|w1~combout $end
$var wire 1 }! comb_35|comb_4|comb_5|w3~0_combout $end
$var wire 1 ~! comb_35|comb_4|comb_4|w1~combout $end
$var wire 1 !" comb_35|comb_8|out~0_combout $end
$var wire 1 "" comb_35|comb_4|comb_5|w1~combout $end
$var wire 1 #" comb_35|comb_8|out~1_combout $end
$var wire 1 $" comb_35|comb_8|out~2_combout $end
$var wire 1 %" comb_35|comb_8|out~3_combout $end
$var wire 1 &" comb_35|comb_8|out~4_combout $end
$var wire 1 '" comb_35|comb_8|out~5_combout $end
$var wire 1 (" comb_35|comb_8|out~6_combout $end
$var wire 1 )" comb_35|comb_8|out~7_combout $end
$var wire 1 *" comb_35|comb_8|out~8_combout $end
$var wire 1 +" comb_35|comb_8|out~9_combout $end
$var wire 1 ," comb_35|comb_8|out~10_combout $end
$var wire 1 -" comb_35|comb_8|out~11_combout $end
$var wire 1 ." comb_35|comb_3|comb_3|w1~0_combout $end
$var wire 1 /" comb_35|comb_3|comb_4|out~combout $end
$var wire 1 0" comb_35|comb_3|comb_5|out~combout $end
$var wire 1 1" comb_35|comb_3|comb_6|out~combout $end
$var wire 1 2" comb_35|comb_3|comb_7|out~combout $end
$var wire 1 3" comb_35|comb_3|comb_8|out~combout $end
$var wire 1 4" comb_35|comb_3|comb_9|out~combout $end
$var wire 1 5" comb_35|comb_3|comb_10|out~combout $end
$var wire 1 6" comb_35|comb_3|comb_11|out~combout $end
$var wire 1 7" comb_35|comb_3|comb_12|out~combout $end
$var wire 1 8" comb_35|comb_3|comb_13|out~combout $end
$var wire 1 9" comb_35|comb_3|comb_14|out~combout $end
$var wire 1 :" comb_35|comb_3|comb_15|out~combout $end
$var wire 1 ;" comb_35|comb_3|comb_16|out~combout $end
$var wire 1 <" comb_35|comb_3|comb_17|out~combout $end
$var wire 1 =" comb_35|comb_3|comb_18|out~combout $end
$var wire 1 >" comb_35|comb_6|out[0]~0_combout $end
$var wire 1 ?" comb_35|comb_6|out[1]~1_combout $end
$var wire 1 @" comb_35|comb_6|out[2]~2_combout $end
$var wire 1 A" comb_35|comb_8|out~12_combout $end
$var wire 1 B" comb_35|comb_6|out[3]~3_combout $end
$var wire 1 C" comb_35|comb_6|out[4]~4_combout $end
$var wire 1 D" comb_35|comb_6|out[5]~5_combout $end
$var wire 1 E" comb_35|comb_8|out~13_combout $end
$var wire 1 F" comb_35|comb_6|out[6]~6_combout $end
$var wire 1 G" comb_35|comb_6|out[7]~7_combout $end
$var wire 1 H" comb_35|comb_6|out[8]~8_combout $end
$var wire 1 I" comb_35|comb_6|out[9]~9_combout $end
$var wire 1 J" comb_35|comb_6|out[10]~10_combout $end
$var wire 1 K" comb_35|comb_6|out[11]~11_combout $end
$var wire 1 L" comb_35|comb_6|out[12]~12_combout $end
$var wire 1 M" comb_35|comb_6|out[13]~13_combout $end
$var wire 1 N" comb_35|comb_6|out[14]~14_combout $end
$var wire 1 O" comb_35|comb_6|out[15]~15_combout $end
$upscope $end
$upscope $end
$enddefinitions $end
#0
$dumpvars
b0 !
b0 "
1#
0C
0B
0A
0@
0?
0>
0=
0<
0;
0:
09
08
07
06
05
04
03
02
01
00
0/
0.
0-
0,
0+
0*
0)
0(
0'
0&
0%
0$
0D
0E
1F
xG
1H
1I
1J
0K
1L
0M
0N
0O
0P
0Q
0R
0S
0T
0U
0V
0W
0X
0Y
0Z
0[
0\
0]
0^
0_
0`
0a
0b
0c
0d
0e
0f
0g
0h
0i
0j
0k
0l
0m
0n
0o
0p
0q
0r
0s
0t
0u
0v
0w
0x
0y
0z
0{
0|
1}
1~
0!!
0"!
1#!
0$!
0%!
0&!
0'!
0(!
1)!
0*!
0+!
0,!
1-!
0.!
0/!
00!
11!
02!
13!
14!
05!
06!
07!
08!
09!
0:!
0;!
0<!
0=!
0>!
0?!
0@!
0A!
0B!
0C!
0D!
0E!
0F!
0G!
0H!
0I!
0J!
0K!
0L!
0M!
0N!
0O!
0P!
0Q!
0R!
0S!
0T!
0U!
1V!
0W!
1X!
0Y!
0Z!
1[!
1\!
0]!
1^!
0_!
1`!
0a!
1b!
1c!
1d!
0e!
0f!
1g!
0h!
0i!
1j!
1k!
0l!
1m!
0n!
1o!
1p!
0q!
0r!
1s!
0t!
0u!
0v!
1w!
0x!
0y!
0z!
0{!
0|!
0}!
0~!
1!"
0""
1#"
1$"
1%"
1&"
1'"
1("
1)"
1*"
1+"
1,"
1-"
0."
1/"
10"
11"
12"
13"
14"
15"
16"
17"
18"
19"
1:"
1;"
1<"
1="
1>"
1?"
1@"
1A"
1B"
1C"
1D"
1E"
1F"
1G"
1H"
1I"
1J"
1K"
1L"
1M"
1N"
1O"
$end
#20000
b1000000 !
b1100000 !
b1100100 !
1W!
1L!
1]!
00"
03"
04"
1S
1R
1O
1A
1>
1=
#40000
b100000 "
b110000 "
b111000 "
1N!
1Z!
1K!
1P!
02"
0[!
13"
0R
1Q
01"
0X!
03"
0\!
1?
0>
1R
1P
12"
14"
1@
1>
0S
0Q
0?
0=
#70000
b100100 !
b100 !
b0 !
0W!
0L!
0]!
10"
13"
04"
0^!
1S
0R
0O
05"
0`!
0A
0>
1=
1T
06"
0b!
1<
1U
07"
0c!
1;
1V
08"
0d!
1:
1W
09"
0g!
19
1X
0:"
0j!
18
1Y
0;"
0k!
17
1Z
0<"
0m!
16
1[
0="
0o!
15
1\
0?"
0>"
0!"
0p!
14
1]
1^
0A"
0@"
0#"
0s!
12
13
1_
0B"
0$"
0w!
11
1`
0E"
0D"
0C"
0%"
10
1a
1b
0F"
0&"
1.
1/
1c
0G"
0'"
1-
1d
0I"
0H"
0("
1,
1e
1f
0J"
0)"
1*
1+
1g
0K"
0*"
1)
1h
0M"
0L"
0+"
1(
1i
1j
0N"
0,"
1&
1'
1k
0O"
1%
0-"
0L
1l
1$
0#
#90000
b1000 !
b1010 !
b1001010 !
b1001110 !
1T!
1W!
1M!
1]!
0/"
00"
0P!
14"
1^!
0S
1O
1N
11"
1X!
15"
1`!
1B
1A
0=
0T
0P
02"
16"
1b!
0@
0<
0U
1Q
17"
1c!
1?
0;
0V
18"
1d!
0:
0W
19"
1g!
09
0X
1:"
1j!
08
0Y
1;"
1k!
07
0Z
1<"
1m!
06
0[
1="
1o!
05
0\
1?"
1>"
1!"
1p!
04
0]
0^
1A"
1@"
1#"
1s!
02
03
0_
1B"
1$"
1w!
01
0`
1E"
1D"
1C"
1%"
00
0a
0b
1F"
1&"
0.
0/
0c
1G"
1'"
0-
0d
1I"
1H"
1("
0,
0e
0f
1J"
1)"
0*
0+
0g
1K"
1*"
0)
0h
1M"
1L"
1+"
0(
0i
0j
1N"
1,"
0&
0'
0k
1O"
0%
1-"
1L
0l
0$
1#
#120000
b11000 "
b1000 "
b0 "
0N!
0Z!
0K!
1P!
1O!
12"
1[!
03"
1R
0Q
01"
0X!
13"
1\!
0?
1>
0R
1P
04"
1@
0>
1S
1=
#170000
b1000110 !
b1000100 !
b100 !
b0 !
0T!
0W!
0M!
0]!
1/"
10"
0P!
0O!
14"
0S
0O
0N
11"
1X!
02"
0[!
0B
0A
0=
1Q
0P
12"
1[!
03"
0\!
0@
1?
1R
0Q
13"
1\!
04"
0^!
0?
1>
1S
0R
14"
1^!
05"
0`!
0>
1=
1T
0S
15"
1`!
06"
0b!
0=
1<
1U
0T
16"
1b!
07"
0c!
0<
1;
1V
0U
17"
1c!
08"
0d!
0;
1:
1W
0V
18"
1d!
09"
0g!
0:
19
1X
0W
19"
1g!
0:"
0j!
09
18
1Y
0X
1:"
1j!
0;"
0k!
08
17
1Z
0Y
1;"
1k!
0<"
0m!
07
16
1[
0Z
1<"
1m!
0="
0o!
06
15
1\
0[
1="
1o!
0?"
0>"
0!"
0p!
05
14
1]
1^
0\
1?"
1>"
1!"
1p!
0A"
0@"
0#"
0s!
04
12
13
1_
0]
0^
1A"
1@"
1#"
1s!
0B"
0$"
0w!
02
03
11
1`
0_
1B"
1$"
1w!
0E"
0D"
0C"
0%"
01
10
1a
1b
0`
1E"
1D"
1C"
1%"
0F"
0&"
00
1.
1/
1c
0a
0b
1F"
1&"
0G"
0'"
0.
0/
1-
1d
0c
1G"
1'"
0I"
0H"
0("
0-
1,
1e
1f
0d
1I"
1H"
1("
0J"
0)"
0,
1*
1+
1g
0e
0f
1J"
1)"
0K"
0*"
0*
0+
1)
1h
0g
1K"
1*"
0M"
0L"
0+"
0)
1(
1i
1j
0h
1M"
1L"
1+"
0N"
0,"
0(
1&
1'
1k
0i
0j
1N"
1,"
0O"
0&
0'
1%
0-"
0L
1l
0k
1O"
0%
1$
0#
1-"
1L
0l
0$
1#
#180000
b1000000000000000000000000000000 !
b1100000000000000000000000000000 !
b1110000000000000000000000000000 !
b1111000000000000000000000000000 !
b1111100000000000000000000000000 !
b1111110000000000000000000000000 !
b1111111000000000000000000000000 !
b1111111100000000000000000000000 !
b1111111110000000000000000000000 !
b1111111111000000000000000000000 !
b1111111111100000000000000000000 !
b1111111111110000000000000000000 !
b1111111111111000000000000000000 !
b1111111111111100000000000000000 !
b1111111111111110000000000000000 !
b1111111111111111000000000000000 !
b1111111111111111100000000000000 !
b1111111111111111110000000000000 !
b1111111111111111111000000000000 !
b1111111111111111111100000000000 !
b1111111111111111111110000000000 !
b1111111111111111111111000000000 !
b1111111111111111111111100000000 !
b1111111111111111111111110000000 !
b1111111111111111111111110010000 !
b1111111111111111111111110010001 !
b10000000000000000000000000000000 "
b11000000000000000000000000000000 "
b11100000000000000000000000000000 "
b11110000000000000000000000000000 "
b11111000000000000000000000000000 "
b11111100000000000000000000000000 "
b11111110000000000000000000000000 "
b11111111000000000000000000000000 "
b11111111100000000000000000000000 "
b11111111110000000000000000000000 "
b11111111111000000000000000000000 "
b11111111111100000000000000000000 "
b11111111111110000000000000000000 "
b11111111111111000000000000000000 "
b11111111111111100000000000000000 "
b11111111111111110000000000000000 "
b11111111111111111000000000000000 "
b11111111111111111100000000000000 "
b11111111111111111110000000000000 "
b11111111111111111111000000000000 "
b11111111111111111111100000000000 "
b11111111111111111111110000000000 "
b11111111111111111111111000000000 "
b11111111111111111111111100000000 "
b11111111111111111111111110000000 "
b11111111111111111111111111000000 "
b11111111111111111111111111000100 "
b11111111111111111111111111000110 "
b1111111111111111111111110110001 !
b11111111111111111111111111100110 "
b11111111111111111111111111110110 "
b11111111111111111111111111111110 "
b1111111111111111111111110111001 !
b1111111111111111111111110111011 !
b1111111111111111111111111111011 !
b1111111111111111111111111111111 !
1R!
1Q!
1N!
1Z!
1K!
1J!
1_!
1H!
1G!
1D!
1f!
1h!
1C!
1A!
1n!
1y
1z
1t
1w
1s
1(!
1$!
1+!
1.!
1q
12!
1m
1r!
15!
1t!
1y!
1S!
1T!
1W!
1M!
1Y!
1L!
1]!
1I!
1a!
1F!
1E!
1e!
1i!
1B!
1l!
1@!
1|
1{
1u
1v
1"!
1'!
1%!
1,!
1/!
1p
1o
1n
1q!
16!
1u!
0O"
0-"
1z!
1."
1M
1K
0L
1l
1$
0#
1D
1C
#230000
b111111111111111111111111111111 !
b11111111111111111111111111111 !
b1111111111111111111111111111 !
b111111111111111111111111111 !
b11111111111111111111111111 !
b1111111111111111111111111 !
b111111111111111111111111 !
b11111111111111111111111 !
b1111111111111111111111 !
b111111111111111111111 !
b11111111111111111111 !
b1111111111111111111 !
b111111111111111111 !
b11111111111111111 !
b1111111111111111 !
b111111111111111 !
b11111111111111 !
b1111111111111 !
b111111111111 !
b11111111111 !
b1111111111 !
b111111111 !
b11111111 !
b1111111 !
b1101111 !
b1101110 !
b1111111111111111111111111111110 "
b111111111111111111111111111110 "
b11111111111111111111111111110 "
b1111111111111111111111111110 "
b111111111111111111111111110 "
b11111111111111111111111110 "
b1111111111111111111111110 "
b111111111111111111111110 "
b11111111111111111111110 "
b1111111111111111111110 "
b111111111111111111110 "
b11111111111111111110 "
b1111111111111111110 "
b111111111111111110 "
b11111111111111110 "
b1111111111111110 "
b111111111111110 "
b11111111111110 "
b1111111111110 "
b111111111110 "
b11111111110 "
b1111111110 "
b111111110 "
b11111110 "
b1111110 "
b111110 "
b111010 "
b111000 "
b1001110 !
b11000 "
b1000 "
b0 "
b1000110 !
b1000100 !
b100 !
b0 !
0R!
0Q!
0N!
0Z!
0K!
0J!
0_!
0H!
0G!
0D!
0f!
0h!
0C!
0A!
0n!
0y
0z
0t
0w
0s
0(!
0$!
0+!
0.!
0q
02!
0m
0r!
05!
0t!
0y!
0S!
0T!
0W!
0M!
0Y!
0L!
0]!
0I!
0a!
0F!
0E!
0e!
0i!
0B!
0l!
0@!
0|
0{
0u
0v
0"!
0'!
0%!
0,!
0/!
0p
0o
0n
0q!
06!
0u!
1O"
1-"
0z!
0."
0M
0K
1L
0l
0$
1#
0D
0C
#240000
b10000000000000000000000000000000 !
b1 "
b101 "
b10000000000000000000000000000010 !
1U!
1Q!
1T!
1x!
01"
00"
0X!
0O"
1."
1M
1l
1O
1P
02"
0[!
1@
1A
1$
1C
1Q
03"
0\!
1?
1R
04"
0^!
1>
1S
05"
0`!
1=
1T
06"
0b!
1<
1U
07"
0c!
1;
1V
08"
0d!
1:
1W
09"
0g!
19
1X
0:"
0j!
18
1Y
0;"
0k!
17
1Z
0<"
0m!
16
1[
0="
0o!
15
1\
0?"
0>"
0!"
0p!
14
1]
1^
0A"
0@"
0#"
0s!
12
13
1_
0B"
0$"
0w!
11
1`
0E"
0D"
0C"
0%"
10
1z!
1K
1a
1b
0F"
0&"
1.
1/
1D
1c
0G"
0'"
1-
1d
0I"
0H"
0("
1,
1e
1f
0J"
0)"
1*
1+
1g
0K"
0*"
1)
1h
0M"
0L"
0+"
1(
1i
1j
0N"
0,"
1&
1'
1k
1O"
1%
0l
0$
#270000
b10 !
b0 !
0T!
0x!
0/"
0V!
0O"
0-"
0z!
0K
0L
1l
1N
10"
1B
1$
0#
0D
0O
0A
#280000
b100 "
b0 "
0U!
0Q!
1/"
1V!
00"
0."
0M
1O
0N
11"
10"
1X!
0B
1A
0C
0O
0P
12"
1[!
0@
0A
0Q
13"
1\!
0?
0R
14"
1^!
0>
0S
15"
1`!
0=
0T
16"
1b!
0<
0U
17"
1c!
0;
0V
18"
1d!
0:
0W
19"
1g!
09
0X
1:"
1j!
08
0Y
1;"
1k!
07
0Z
1<"
1m!
06
0[
1="
1o!
05
0\
1?"
1>"
1!"
1p!
04
0]
0^
1A"
1@"
1#"
1s!
02
03
0_
1B"
1$"
1w!
01
0`
1E"
1D"
1C"
1%"
00
0a
0b
1F"
1&"
0.
0/
0c
1G"
1'"
0-
0d
1I"
1H"
1("
0,
0e
0f
1J"
1)"
0*
0+
0g
1K"
1*"
0)
0h
1M"
1L"
1+"
0(
0i
0j
1N"
1,"
0&
0'
0k
1O"
0%
1-"
1L
0l
0$
1#
